
Server shutting down at 23-11-2014 14:05:56


Server shutting down at 23-11-2014 14:14:21


Server shutting down at 23-11-2014 14:17:18


Server shutting down at 23-11-2014 14:26:54


Server shutting down at 23-11-2014 14:37:29


Server shutting down at 23-11-2014 15:13:34


Server shutting down at 23-11-2014 15:31:32


Server shutting down at 23-11-2014 15:34:48


Server shutting down at 23-11-2014 15:37:20


Server shutting down at 23-11-2014 15:37:50


Server shutting down at 23-11-2014 15:50:36


Server shutting down at 23-11-2014 16:03:08


Server shutting down at 23-11-2014 16:20:56


Server shutting down at 23-11-2014 16:23:39


Server shutting down at 23-11-2014 16:30:07


Server shutting down at 30-11-2014 00:31:35


Server shutting down at 30-11-2014 00:35:38

